<svg width="67" height="70" viewBox="0 0 67 70" fill="none" xmlns="http://www.w3.org/2000/svg">
<g opacity="0.7">
<path opacity="0.7" d="M55.5443 33.5524L33.4425 28.2134V70L55.5443 64.1968V33.5524Z" fill="url(#paint0_linear)"/>
<g opacity="0.1">
<path opacity="0.1" d="M55.5443 33.5524L33.4425 28.2134V70L55.5443 64.1968V33.5524Z" fill="url(#paint1_linear)"/>
</g>
<path opacity="0.7" d="M11.3398 33.5524L33.4425 28.2134V70L11.3398 64.3121V33.5524Z" fill="url(#paint2_linear)"/>
<g opacity="0.17">
<path opacity="0.17" d="M11.3398 33.5524L33.4425 28.2134V70L11.3398 64.3121V33.5524Z" fill="url(#paint3_linear)"/>
</g>
<path opacity="0.7" d="M33.4425 28.2133L44.8982 18.6953L67 24.3832L55.5443 33.5523L33.4425 28.2133Z" fill="url(#paint4_linear)"/>
<path opacity="0.7" d="M0 24.4986L11.3398 33.5523L33.4425 28.2133L22.2177 18.6953L0 24.4986Z" fill="url(#paint5_linear)"/>
<g opacity="0.05">
<path opacity="0.05" d="M0 24.4986L11.3398 33.5523L33.4425 28.2133L22.2177 18.6953L0 24.4986Z" fill="url(#paint6_linear)"/>
</g>
<g opacity="0.5">
<path opacity="0.5" d="M33.0436 23.3833H17.4602C17.2333 23.3833 17.0494 23.5678 17.0494 23.7953V38.1543C17.0494 38.3818 17.2333 38.5663 17.4602 38.5663H33.0436C33.2705 38.5663 33.4544 38.3818 33.4544 38.1543V23.7953C33.4544 23.5678 33.2705 23.3833 33.0436 23.3833Z" fill="url(#paint7_linear)"/>
</g>
<path opacity="0.7" d="M32.8656 23.5005H17.6601C17.4332 23.5005 17.2493 23.685 17.2493 23.9125V37.9034C17.2493 38.1309 17.4332 38.3154 17.6601 38.3154H32.8656C33.0925 38.3154 33.2764 38.1309 33.2764 37.9034V23.9125C33.2764 23.685 33.0925 23.5005 32.8656 23.5005Z" fill="url(#paint8_linear)"/>
<path opacity="0.7" d="M20.7764 25.9404H18.8951C18.6682 25.9404 18.4843 26.1249 18.4843 26.3525V27.9686C18.4843 28.1961 18.6682 28.3806 18.8951 28.3806H20.7764C21.0032 28.3806 21.1871 28.1961 21.1871 27.9686V26.3525C21.1871 26.1249 21.0032 25.9404 20.7764 25.9404Z" fill="url(#paint9_linear)"/>
<path opacity="0.7" d="M32.6694 25.9404H22.0707C22.0304 25.9404 21.9977 25.9732 21.9977 26.0137V26.1382C21.9977 26.1787 22.0304 26.2115 22.0707 26.2115H32.6694C32.7097 26.2115 32.7424 26.1787 32.7424 26.1382V26.0137C32.7424 25.9732 32.7097 25.9404 32.6694 25.9404Z" fill="url(#paint10_linear)"/>
<path opacity="0.7" d="M32.6694 26.7539H22.0707C22.0304 26.7539 21.9977 26.7867 21.9977 26.8272V26.9517C21.9977 26.9921 22.0304 27.0249 22.0707 27.0249H32.6694C32.7097 27.0249 32.7424 26.9921 32.7424 26.9517V26.8272C32.7424 26.7867 32.7097 26.7539 32.6694 26.7539Z" fill="url(#paint11_linear)"/>
<path opacity="0.7" d="M32.6693 29.707H18.2872C18.2468 29.707 18.2141 29.7398 18.2141 29.7803V29.9048C18.2141 29.9453 18.2468 29.9781 18.2872 29.9781H32.6693C32.7097 29.9781 32.7424 29.9453 32.7424 29.9048V29.7803C32.7424 29.7398 32.7097 29.707 32.6693 29.707Z" fill="url(#paint12_linear)"/>
<path opacity="0.7" d="M32.6693 30.52H18.2872C18.2468 30.52 18.2141 30.5528 18.2141 30.5933V30.7178C18.2141 30.7583 18.2468 30.791 18.2872 30.791H32.6693C32.7097 30.791 32.7424 30.7583 32.7424 30.7178V30.5933C32.7424 30.5528 32.7097 30.52 32.6693 30.52Z" fill="url(#paint13_linear)"/>
<path opacity="0.7" d="M32.6693 31.604H18.2872C18.2468 31.604 18.2141 31.6368 18.2141 31.6773V31.8018C18.2141 31.8422 18.2468 31.875 18.2872 31.875H32.6693C32.7097 31.875 32.7424 31.8422 32.7424 31.8018V31.6773C32.7424 31.6368 32.7097 31.604 32.6693 31.604Z" fill="url(#paint14_linear)"/>
<path opacity="0.7" d="M26.5198 32.418H18.2872C18.2468 32.418 18.2141 32.4508 18.2141 32.4912V32.6157C18.2141 32.6562 18.2468 32.689 18.2872 32.689H26.5198C26.5601 32.689 26.5928 32.6562 26.5928 32.6157V32.4912C26.5928 32.4508 26.5601 32.418 26.5198 32.418Z" fill="url(#paint15_linear)"/>
<path opacity="0.7" d="M32.6693 33.499H18.2872C18.2468 33.499 18.2141 33.5318 18.2141 33.5723V33.6968C18.2141 33.7373 18.2468 33.7701 18.2872 33.7701H32.6693C32.7097 33.7701 32.7424 33.7373 32.7424 33.6968V33.5723C32.7424 33.5318 32.7097 33.499 32.6693 33.499Z" fill="url(#paint16_linear)"/>
<path opacity="0.7" d="M32.6693 34.3125H18.2872C18.2468 34.3125 18.2141 34.3453 18.2141 34.3858V34.5103C18.2141 34.5507 18.2468 34.5835 18.2872 34.5835H32.6693C32.7097 34.5835 32.7424 34.5507 32.7424 34.5103V34.3858C32.7424 34.3453 32.7097 34.3125 32.6693 34.3125Z" fill="url(#paint17_linear)"/>
<path opacity="0.7" d="M32.6693 35.3975H18.2872C18.2468 35.3975 18.2141 35.4303 18.2141 35.4707V35.5952C18.2141 35.6357 18.2468 35.6685 18.2872 35.6685H32.6693C32.7097 35.6685 32.7424 35.6357 32.7424 35.5952V35.4707C32.7424 35.4303 32.7097 35.3975 32.6693 35.3975Z" fill="url(#paint18_linear)"/>
<path opacity="0.7" d="M26.5198 36.2104H18.2872C18.2468 36.2104 18.2141 36.2432 18.2141 36.2837V36.4082C18.2141 36.4487 18.2468 36.4815 18.2872 36.4815H26.5198C26.5601 36.4815 26.5928 36.4487 26.5928 36.4082V36.2837C26.5928 36.2432 26.5601 36.2104 26.5198 36.2104Z" fill="url(#paint19_linear)"/>
<g opacity="0.5">
<path opacity="0.5" d="M35.5191 26.8911H19.9357C19.7088 26.8911 19.5249 27.0756 19.5249 27.3031V41.6621C19.5249 41.8896 19.7088 42.0741 19.9357 42.0741H35.5191C35.746 42.0741 35.9299 41.8896 35.9299 41.6621V27.3031C35.9299 27.0756 35.746 26.8911 35.5191 26.8911Z" fill="url(#paint20_linear)"/>
</g>
<path opacity="0.7" d="M35.3411 27.0093H20.1356C19.9087 27.0093 19.7248 27.1938 19.7248 27.4213V41.4122C19.7248 41.6397 19.9087 41.8242 20.1356 41.8242H35.3411C35.568 41.8242 35.7519 41.6397 35.7519 41.4122V27.4213C35.7519 27.1938 35.568 27.0093 35.3411 27.0093Z" fill="url(#paint21_linear)"/>
<path opacity="0.7" d="M23.2519 29.4492H21.3706C21.1438 29.4492 20.9599 29.6337 20.9599 29.8613V31.4773C20.9599 31.7049 21.1438 31.8894 21.3706 31.8894H23.2519C23.4788 31.8894 23.6627 31.7049 23.6627 31.4773V29.8613C23.6627 29.6337 23.4788 29.4492 23.2519 29.4492Z" fill="url(#paint22_linear)"/>
<path opacity="0.7" d="M35.1458 29.4492H24.5472C24.5068 29.4492 24.4742 29.482 24.4742 29.5225V29.647C24.4742 29.6875 24.5068 29.7203 24.5472 29.7203H35.1458C35.1861 29.7203 35.2188 29.6875 35.2188 29.647V29.5225C35.2188 29.482 35.1861 29.4492 35.1458 29.4492Z" fill="url(#paint23_linear)"/>
<path opacity="0.7" d="M35.1458 30.2622H24.5472C24.5068 30.2622 24.4742 30.295 24.4742 30.3355V30.46C24.4742 30.5004 24.5068 30.5332 24.5472 30.5332H35.1458C35.1861 30.5332 35.2188 30.5004 35.2188 30.46V30.3355C35.2188 30.295 35.1861 30.2622 35.1458 30.2622Z" fill="url(#paint24_linear)"/>
<path opacity="0.7" d="M35.1449 33.2144H20.7627C20.7224 33.2144 20.6897 33.2471 20.6897 33.2876V33.4121C20.6897 33.4526 20.7224 33.4854 20.7627 33.4854H35.1449C35.1852 33.4854 35.2179 33.4526 35.2179 33.4121V33.2876C35.2179 33.2471 35.1852 33.2144 35.1449 33.2144Z" fill="url(#paint25_linear)"/>
<path opacity="0.7" d="M35.1449 34.0283H20.7627C20.7224 34.0283 20.6897 34.0611 20.6897 34.1016V34.2261C20.6897 34.2665 20.7224 34.2993 20.7627 34.2993H35.1449C35.1852 34.2993 35.2179 34.2665 35.2179 34.2261V34.1016C35.2179 34.0611 35.1852 34.0283 35.1449 34.0283Z" fill="url(#paint26_linear)"/>
<path opacity="0.7" d="M35.1449 35.1128H20.7627C20.7224 35.1128 20.6897 35.1456 20.6897 35.186V35.3106C20.6897 35.351 20.7224 35.3838 20.7627 35.3838H35.1449C35.1852 35.3838 35.2179 35.351 35.2179 35.3106V35.186C35.2179 35.1456 35.1852 35.1128 35.1449 35.1128Z" fill="url(#paint27_linear)"/>
<path opacity="0.7" d="M28.9953 35.9258H20.7627C20.7224 35.9258 20.6897 35.9586 20.6897 35.999V36.1235C20.6897 36.164 20.7224 36.1968 20.7627 36.1968H28.9953C29.0356 36.1968 29.0683 36.164 29.0683 36.1235V35.999C29.0683 35.9586 29.0356 35.9258 28.9953 35.9258Z" fill="url(#paint28_linear)"/>
<path opacity="0.7" d="M35.1449 37.0078H20.7627C20.7224 37.0078 20.6897 37.0406 20.6897 37.0811V37.2056C20.6897 37.2461 20.7224 37.2789 20.7627 37.2789H35.1449C35.1852 37.2789 35.2179 37.2461 35.2179 37.2056V37.0811C35.2179 37.0406 35.1852 37.0078 35.1449 37.0078Z" fill="url(#paint29_linear)"/>
<path opacity="0.7" d="M35.1449 37.8213H20.7627C20.7224 37.8213 20.6897 37.8541 20.6897 37.8945V38.0191C20.6897 38.0595 20.7224 38.0923 20.7627 38.0923H35.1449C35.1852 38.0923 35.2179 38.0595 35.2179 38.0191V37.8945C35.2179 37.8541 35.1852 37.8213 35.1449 37.8213Z" fill="url(#paint30_linear)"/>
<path opacity="0.7" d="M35.1449 38.9058H20.7627C20.7224 38.9058 20.6897 38.9386 20.6897 38.979V39.1035C20.6897 39.144 20.7224 39.1768 20.7627 39.1768H35.1449C35.1852 39.1768 35.2179 39.144 35.2179 39.1035V38.979C35.2179 38.9386 35.1852 38.9058 35.1449 38.9058Z" fill="url(#paint31_linear)"/>
<path opacity="0.7" d="M28.9953 39.7192H20.7627C20.7224 39.7192 20.6897 39.752 20.6897 39.7925V39.917C20.6897 39.9575 20.7224 39.9903 20.7627 39.9903H28.9953C29.0356 39.9903 29.0683 39.9575 29.0683 39.917V39.7925C29.0683 39.752 29.0356 39.7192 28.9953 39.7192Z" fill="url(#paint32_linear)"/>
<g opacity="0.5">
<path opacity="0.5" d="M43.2789 28.856H29.0647V45.6083H43.2789V28.856Z" fill="url(#paint33_linear)"/>
</g>
<path opacity="0.7" d="M42.9767 29.126H29.5019V45.2383H42.9767V29.126Z" fill="url(#paint34_linear)"/>
<g opacity="0.5">
<path opacity="0.5" d="M36.9732 31.6879V31.2832H35.5082V31.6879H34.4776V33.6758H38.001V31.6879H36.9732ZM35.6907 31.4288H36.7861V31.6861H35.6907V31.4288Z" fill="url(#paint35_linear)"/>
</g>
<path opacity="0.7" d="M37.8523 31.7549H34.6264V33.5752H37.8523V31.7549Z" fill="url(#paint36_linear)"/>
<path opacity="0.7" d="M35.5675 31.3843V31.8567H35.7355V31.5198H36.7432V31.8567H36.9112V31.3843H35.5675Z" fill="url(#paint37_linear)"/>
<path opacity="0.7" d="M40.9941 36.1948H31.5183V36.5995H40.9941V36.1948Z" fill="url(#paint38_linear)"/>
<path opacity="0.7" d="M40.9941 38.8574H31.5183V39.2621H40.9941V38.8574Z" fill="url(#paint39_linear)"/>
<path opacity="0.7" d="M40.9941 39.5654H31.5183V39.9701H40.9941V39.5654Z" fill="url(#paint40_linear)"/>
<path opacity="0.7" d="M35.5173 38.1494H31.5183V38.5541H35.5173V38.1494Z" fill="url(#paint41_linear)"/>
<g opacity="0.6">
<path opacity="0.6" d="M40.9941 38.1494H38.0038V38.5541H40.9941V38.1494Z" fill="url(#paint42_linear)"/>
</g>
<path opacity="0.7" d="M37.8349 41.2173H34.8446V41.622H37.8349V41.2173Z" fill="url(#paint43_linear)"/>
<path opacity="0.7" d="M11.3398 33.5522V64.3119L33.4425 69.9998V39.4727L11.3398 33.5522Z" fill="url(#paint44_linear)"/>
<path opacity="0.7" d="M55.5443 64.1966L33.4425 69.9998V39.4727L55.5443 33.5522V64.1966Z" fill="url(#paint45_linear)"/>
<g opacity="0.07">
<path opacity="0.07" d="M55.5443 64.1966L33.4425 69.9998V39.4727L55.5443 33.5522V64.1966Z" fill="url(#paint46_linear)"/>
</g>
<g opacity="0.07">
<path opacity="0.07" d="M46.7494 53.9818V64.0803L55.5443 61.6429V51.5444L46.7494 53.9818Z" fill="url(#paint47_linear)"/>
</g>
<path opacity="0.7" d="M50.4955 30.9868H43.9772V37.269H50.4955V30.9868Z" fill="url(#paint48_linear)"/>
<path opacity="0.7" d="M50.3933 31.1406H44.0794V37.1408H50.3933V31.1406Z" fill="url(#paint49_linear)"/>
<g opacity="0.5">
<path opacity="0.5" d="M47.7945 32.1925V31.8867H46.6782V32.1944H45.8959V33.707H48.5768V32.1925H47.7945ZM46.8178 31.9966H47.6558V32.1925H46.8178V31.9966Z" fill="url(#paint50_linear)"/>
</g>
<g opacity="0.6">
<path opacity="0.6" d="M48.4627 32.2437H46.0091V33.6281H48.4627V32.2437Z" fill="url(#paint51_linear)"/>
</g>
<g opacity="0.6">
<path opacity="0.6" d="M46.7248 31.9609V32.3208H46.8535V32.0644H47.6202V32.3208H47.748V31.9609H46.7248Z" fill="url(#paint52_linear)"/>
</g>
<g opacity="0.6">
<path opacity="0.6" d="M48.4244 34.7051H46.1497V35.0127H48.4244V34.7051Z" fill="url(#paint53_linear)"/>
</g>
<path opacity="0.7" d="M49.1793 35.269H45.2935V35.5767H49.1793V35.269Z" fill="url(#paint54_linear)"/>
<g opacity="0.5">
<path opacity="0.5" d="M36.9696 11.7832H28.5243V18.742H36.9696V11.7832Z" fill="url(#paint55_linear)"/>
</g>
<path opacity="0.7" d="M36.8555 11.915H28.6229V18.6266H36.8555V11.915Z" fill="url(#paint56_linear)"/>
<path opacity="0.7" d="M36.8555 11.915H28.6229V13.4121H36.8555V11.915Z" fill="url(#paint57_linear)"/>
<g opacity="0.1">
<path opacity="0.1" d="M36.8555 11.915H28.6229V13.4121H36.8555V11.915Z" fill="url(#paint58_linear)"/>
</g>
<path opacity="0.7" d="M36.2001 13.9551H29.2792V14.8268H36.2001V13.9551Z" fill="url(#paint59_linear)"/>
<path opacity="0.7" d="M34.3307 15.4854H29.2792V15.7811H34.3307V15.4854Z" fill="url(#paint60_linear)"/>
<path opacity="0.7" d="M32.5589 15.9951H29.2792V16.2909H32.5589V15.9951Z" fill="url(#paint61_linear)"/>
<path opacity="0.7" d="M33.6086 16.5054H29.2792V16.8011H33.6086V16.5054Z" fill="url(#paint62_linear)"/>
<path opacity="0.7" d="M34.3307 17.0142H29.2792V17.3099H34.3307V17.0142Z" fill="url(#paint63_linear)"/>
<path opacity="0.7" d="M30.9679 17.5244H29.2792V17.8202H30.9679V17.5244Z" fill="url(#paint64_linear)"/>
<g opacity="0.5">
<path opacity="0.5" d="M51.4093 17.0088H40.9412V25.6331H51.4093V17.0088Z" fill="url(#paint65_linear)"/>
</g>
<path opacity="0.7" d="M51.2678 17.1719H41.0635V25.4904H51.2678V17.1719Z" fill="url(#paint66_linear)"/>
<path opacity="0.7" d="M51.2678 17.1719H41.0635V19.027H51.2678V17.1719Z" fill="url(#paint67_linear)"/>
<path opacity="0.7" d="M50.4536 19.6997H41.8759V20.7802H50.4536V19.6997Z" fill="url(#paint68_linear)"/>
<path opacity="0.7" d="M48.1369 21.5962H41.8759V21.9634H48.1369V21.5962Z" fill="url(#paint69_linear)"/>
<path opacity="0.7" d="M45.9416 22.228H41.8759V22.5952H45.9416V22.228Z" fill="url(#paint70_linear)"/>
<path opacity="0.7" d="M47.2423 22.8604H41.8759V23.2275H47.2423V22.8604Z" fill="url(#paint71_linear)"/>
<path opacity="0.7" d="M48.1369 23.4922H41.8759V23.8594H48.1369V23.4922Z" fill="url(#paint72_linear)"/>
<path opacity="0.7" d="M43.9699 24.124H41.8759V24.4912H43.9699V24.124Z" fill="url(#paint73_linear)"/>
<path opacity="0.7" d="M44.7622 20.0669H42.3232V20.3929H44.7622V20.0669Z" fill="url(#paint74_linear)"/>
<g opacity="0.1">
<path opacity="0.1" d="M11.0513 49.5128L23.4327 52.647L33.3841 44.5217V39.5306L11.2823 33.959L11.0513 49.5128Z" fill="url(#paint75_linear)"/>
</g>
<g opacity="0.1">
<path opacity="0.1" d="M55.7177 49.5128L43.3355 52.647L33.3841 44.5217V39.5306L55.4859 33.959L55.7177 49.5128Z" fill="url(#paint76_linear)"/>
</g>
<path opacity="0.7" d="M11.3398 33.5522L0 42.9549L22.1018 48.5265L33.4425 39.4727L11.3398 33.5522Z" fill="url(#paint77_linear)"/>
<path opacity="0.7" d="M55.5443 33.5522L67 42.9549L45.0141 48.5265L33.4425 39.4727L55.5443 33.5522Z" fill="url(#paint78_linear)"/>
<g opacity="0.07">
<path opacity="0.07" d="M55.5443 33.5522L67 42.9549L45.0141 48.5265L33.4425 39.4727L55.5443 33.5522Z" fill="url(#paint79_linear)"/>
</g>
</g>
<path d="M55.5844 33.2703L33.6716 27.9761V69.4056L55.5844 63.6518V33.2703Z" fill="#535461"/>
<path opacity="0.1" d="M55.5844 33.2703L33.6716 27.9761V69.4056L55.5844 63.6518V33.2703Z" fill="black"/>
<path d="M11.7597 33.2703L33.6716 27.9761V69.4056L11.7597 63.7663V33.2703Z" fill="#535461"/>
<path opacity="0.17" d="M11.7597 33.0871L33.6716 27.793V69.4056L11.7597 63.7663V33.0871Z" fill="black"/>
<path d="M33.4891 28.1597L45.0297 18.54L66.9425 24.1794L55.4019 33.4538L33.4891 28.1597Z" fill="#535461"/>
<path d="M0.699203 24.4765L11.9422 33.4533L33.8542 28.1592L22.7261 18.7227L0.699203 24.4765Z" fill="#535461"/>
<path opacity="0.05" d="M0.516632 24.2939L12.0335 33.4538L33.9454 28.1597L22.5436 18.54L0.516632 24.2939Z" fill="black"/>
<g opacity="0.5">
<path opacity="0.5" d="M33.2727 23.1875H17.8298C17.603 23.1875 17.4191 23.372 17.4191 23.5995V37.8284C17.4191 38.056 17.603 38.2405 17.8298 38.2405H33.2727C33.4996 38.2405 33.6835 38.056 33.6835 37.8284V23.5995C33.6835 23.372 33.4996 23.1875 33.2727 23.1875Z" fill="url(#paint80_linear)"/>
</g>
<path d="M33.0965 23.3047H18.0288C17.802 23.3047 17.6181 23.4892 17.6181 23.7167V37.5803C17.6181 37.8079 17.802 37.9923 18.0288 37.9923H33.0965C33.3234 37.9923 33.5073 37.8079 33.5073 37.5803V23.7167C33.5073 23.4892 33.3234 23.3047 33.0965 23.3047Z" fill="#F5F5F5"/>
<path d="M21.1114 25.7236H19.2529C19.0261 25.7236 18.8421 25.9081 18.8421 26.1357V27.7307C18.8421 27.9583 19.0261 28.1427 19.2529 28.1427H21.1114C21.3382 28.1427 21.5221 27.9583 21.5221 27.7307V26.1357C21.5221 25.9081 21.3382 25.7236 21.1114 25.7236Z" fill="#022E64"/>
<path d="M32.9057 25.7236H22.3993C22.359 25.7236 22.3263 25.7564 22.3263 25.7969V25.9196C22.3263 25.96 22.359 25.9928 22.3993 25.9928H32.9057C32.9461 25.9928 32.9788 25.96 32.9788 25.9196V25.7969C32.9788 25.7564 32.9461 25.7236 32.9057 25.7236Z" fill="#E0E0E0"/>
<path d="M32.9057 26.5293H22.3993C22.359 26.5293 22.3263 26.5621 22.3263 26.6025V26.7252C22.3263 26.7657 22.359 26.7985 22.3993 26.7985H32.9057C32.9461 26.7985 32.9788 26.7657 32.9788 26.7252V26.6025C32.9788 26.5621 32.9461 26.5293 32.9057 26.5293Z" fill="#E0E0E0"/>
<path d="M32.9058 29.4565H18.6477C18.6074 29.4565 18.5747 29.4893 18.5747 29.5298V29.6525C18.5747 29.6929 18.6074 29.7257 18.6477 29.7257H32.9058C32.9461 29.7257 32.9788 29.6929 32.9788 29.6525V29.5298C32.9788 29.4893 32.9461 29.4565 32.9058 29.4565Z" fill="#E0E0E0"/>
<path d="M32.9058 30.2637H18.6477C18.6074 30.2637 18.5747 30.2965 18.5747 30.3369V30.4596C18.5747 30.5001 18.6074 30.5329 18.6477 30.5329H32.9058C32.9461 30.5329 32.9788 30.5001 32.9788 30.4596V30.3369C32.9788 30.2965 32.9461 30.2637 32.9058 30.2637Z" fill="#E0E0E0"/>
<path d="M32.9058 31.3384H18.6477C18.6074 31.3384 18.5747 31.3712 18.5747 31.4116V31.5343C18.5747 31.5748 18.6074 31.6076 18.6477 31.6076H32.9058C32.9461 31.6076 32.9788 31.5748 32.9788 31.5343V31.4116C32.9788 31.3712 32.9461 31.3384 32.9058 31.3384Z" fill="#E0E0E0"/>
<path d="M26.8091 32.145H18.6477C18.6074 32.145 18.5747 32.1778 18.5747 32.2183V32.341C18.5747 32.3814 18.6074 32.4142 18.6477 32.4142H26.8091C26.8495 32.4142 26.8822 32.3814 26.8822 32.341V32.2183C26.8822 32.1778 26.8495 32.145 26.8091 32.145Z" fill="#E0E0E0"/>
<path d="M32.9058 33.2173H18.6477C18.6074 33.2173 18.5747 33.2501 18.5747 33.2905V33.4132C18.5747 33.4537 18.6074 33.4865 18.6477 33.4865H32.9058C32.9461 33.4865 32.9788 33.4537 32.9788 33.4132V33.2905C32.9788 33.2501 32.9461 33.2173 32.9058 33.2173Z" fill="#E0E0E0"/>
<path d="M32.9058 34.0239H18.6477C18.6074 34.0239 18.5747 34.0567 18.5747 34.0972V34.2199C18.5747 34.2603 18.6074 34.2931 18.6477 34.2931H32.9058C32.9461 34.2931 32.9788 34.2603 32.9788 34.2199V34.0972C32.9788 34.0567 32.9461 34.0239 32.9058 34.0239Z" fill="#E0E0E0"/>
<path d="M32.9058 35.0986H18.6477C18.6074 35.0986 18.5747 35.1314 18.5747 35.1719V35.2946C18.5747 35.335 18.6074 35.3678 18.6477 35.3678H32.9058C32.9461 35.3678 32.9788 35.335 32.9788 35.2946V35.1719C32.9788 35.1314 32.9461 35.0986 32.9058 35.0986Z" fill="#E0E0E0"/>
<path d="M26.8091 35.9058H18.6477C18.6074 35.9058 18.5747 35.9386 18.5747 35.979V36.1017C18.5747 36.1421 18.6074 36.1749 18.6477 36.1749H26.8091C26.8495 36.1749 26.8822 36.1421 26.8822 36.1017V35.979C26.8822 35.9386 26.8495 35.9058 26.8091 35.9058Z" fill="#E0E0E0"/>
<g opacity="0.5">
<path opacity="0.5" d="M35.7272 26.666H20.2844C20.0575 26.666 19.8736 26.8505 19.8736 27.078V41.307C19.8736 41.5345 20.0575 41.719 20.2844 41.719H35.7272C35.9541 41.719 36.138 41.5345 36.138 41.307V27.078C36.138 26.8505 35.9541 26.666 35.7272 26.666Z" fill="url(#paint81_linear)"/>
</g>
<path d="M35.5511 26.7832H20.4834C20.2565 26.7832 20.0726 26.9677 20.0726 27.1952V41.0588C20.0726 41.2864 20.2565 41.4709 20.4834 41.4709H35.5511C35.7779 41.4709 35.9618 41.2864 35.9618 41.0588V27.1952C35.9618 26.9677 35.7779 26.7832 35.5511 26.7832Z" fill="white"/>
<path d="M23.5659 29.2021H21.7075C21.4806 29.2021 21.2967 29.3866 21.2967 29.6142V31.2092C21.2967 31.4368 21.4806 31.6213 21.7075 31.6213H23.5659C23.7928 31.6213 23.9767 31.4368 23.9767 31.2092V29.6142C23.9767 29.3866 23.7928 29.2021 23.5659 29.2021Z" fill="#022E64"/>
<path d="M35.3603 29.2021H24.8539C24.8136 29.2021 24.7809 29.2349 24.7809 29.2754V29.3981C24.7809 29.4385 24.8136 29.4713 24.8539 29.4713H35.3603C35.4006 29.4713 35.4333 29.4385 35.4333 29.3981V29.2754C35.4333 29.2349 35.4006 29.2021 35.3603 29.2021Z" fill="#E0E0E0"/>
<path d="M35.3603 30.0083H24.8539C24.8136 30.0083 24.7809 30.0411 24.7809 30.0815V30.2042C24.7809 30.2447 24.8136 30.2775 24.8539 30.2775H35.3603C35.4006 30.2775 35.4333 30.2447 35.4333 30.2042V30.0815C35.4333 30.0411 35.4006 30.0083 35.3603 30.0083Z" fill="#E0E0E0"/>
<path d="M35.3603 32.9351H21.1023C21.0619 32.9351 21.0292 32.9679 21.0292 33.0083V33.131C21.0292 33.1715 21.0619 33.2043 21.1023 33.2043H35.3603C35.4006 33.2043 35.4333 33.1715 35.4333 33.131V33.0083C35.4333 32.9679 35.4006 32.9351 35.3603 32.9351Z" fill="#E0E0E0"/>
<path d="M35.3603 33.7422H21.1023C21.0619 33.7422 21.0292 33.775 21.0292 33.8154V33.9381C21.0292 33.9786 21.0619 34.0114 21.1023 34.0114H35.3603C35.4006 34.0114 35.4333 33.9786 35.4333 33.9381V33.8154C35.4333 33.775 35.4006 33.7422 35.3603 33.7422Z" fill="#E0E0E0"/>
<path d="M35.3603 34.8169H21.1023C21.0619 34.8169 21.0292 34.8497 21.0292 34.8901V35.0128C21.0292 35.0533 21.0619 35.0861 21.1023 35.0861H35.3603C35.4006 35.0861 35.4333 35.0533 35.4333 35.0128V34.8901C35.4333 34.8497 35.4006 34.8169 35.3603 34.8169Z" fill="#E0E0E0"/>
<path d="M29.2637 35.6235H21.1023C21.0619 35.6235 21.0292 35.6563 21.0292 35.6968V35.8195C21.0292 35.86 21.0619 35.8927 21.1023 35.8927H29.2637C29.304 35.8927 29.3367 35.86 29.3367 35.8195V35.6968C29.3367 35.6563 29.304 35.6235 29.2637 35.6235Z" fill="#E0E0E0"/>
<path d="M35.3603 36.6958H21.1023C21.0619 36.6958 21.0292 36.7286 21.0292 36.769V36.8917C21.0292 36.9322 21.0619 36.965 21.1023 36.965H35.3603C35.4006 36.965 35.4333 36.9322 35.4333 36.8917V36.769C35.4333 36.7286 35.4006 36.6958 35.3603 36.6958Z" fill="#E0E0E0"/>
<path d="M35.3603 37.5024H21.1023C21.0619 37.5024 21.0292 37.5352 21.0292 37.5757V37.6984C21.0292 37.7388 21.0619 37.7716 21.1023 37.7716H35.3603C35.4006 37.7716 35.4333 37.7388 35.4333 37.6984V37.5757C35.4333 37.5352 35.4006 37.5024 35.3603 37.5024Z" fill="#E0E0E0"/>
<path d="M35.3603 38.5776H21.1023C21.0619 38.5776 21.0292 38.6104 21.0292 38.6509V38.7736C21.0292 38.814 21.0619 38.8468 21.1023 38.8468H35.3603C35.4006 38.8468 35.4333 38.814 35.4333 38.7736V38.6509C35.4333 38.6104 35.4006 38.5776 35.3603 38.5776Z" fill="#E0E0E0"/>
<path d="M29.2637 39.3843H21.1023C21.0619 39.3843 21.0292 39.4171 21.0292 39.4575V39.5802C21.0292 39.6207 21.0619 39.6535 21.1023 39.6535H29.2637C29.304 39.6535 29.3367 39.6207 29.3367 39.5802V39.4575C29.3367 39.4171 29.304 39.3843 29.2637 39.3843Z" fill="#E0E0E0"/>
<g opacity="0.5">
<path opacity="0.5" d="M43.425 28.6143H29.3321V45.2229H43.425V28.6143Z" fill="url(#paint82_linear)"/>
</g>
<path d="M43.1255 28.8818H29.7657V44.8559H43.1255V28.8818Z" fill="white"/>
<g opacity="0.5">
<path opacity="0.5" d="M37.1731 31.422V31.02H35.7172V31.422H34.6985V33.3933H38.1918V31.422H37.1731ZM35.8952 31.1665H36.9906V31.422H35.8952V31.1665Z" fill="url(#paint83_linear)"/>
</g>
<path d="M38.0449 31.4888H34.8464V33.2935H38.0449V31.4888Z" fill="#022E64"/>
<path d="M35.7793 31.1206V31.5885H35.9454V31.2543H36.9449V31.5885H37.112V31.1206H35.7793Z" fill="#022E64"/>
<path d="M41.1593 35.8896H31.7647V36.2907H41.1593V35.8896Z" fill="#E0E0E0"/>
<path d="M41.1593 38.5298H31.7647V38.9308H41.1593V38.5298Z" fill="#E0E0E0"/>
<path d="M41.1593 39.2319H31.7647V39.633H41.1593V39.2319Z" fill="#E0E0E0"/>
<path d="M35.7291 37.8281H31.7647V38.2292H35.7291V37.8281Z" fill="#E0E0E0"/>
<path opacity="0.6" d="M41.1594 37.8281H38.1946V38.2292H41.1594V37.8281Z" fill="#3AD29F"/>
<path d="M38.0275 40.8691H35.0627V41.2702H38.0275V40.8691Z" fill="#022E64"/>
<path d="M11.7597 33.2705V63.7665L33.6716 69.4059L33.9674 39.1397L11.7597 33.2705Z" fill="#535461"/>
<path d="M55.5844 63.6521L33.6716 69.4059V39.1397L55.5844 33.2705V63.6521Z" fill="#535461"/>
<path opacity="0.07" d="M55.5844 63.6521L33.6716 69.4059V39.1397L55.5844 33.2705V63.6521Z" fill="black"/>
<path opacity="0.07" d="M46.8653 53.5247V63.5362L55.5845 61.1199V51.1074L46.8653 53.5247Z" fill="black"/>
<path d="M50.5795 30.7266H44.1169V36.9547H50.5795V30.7266Z" fill="url(#paint84_linear)"/>
<path d="M50.4782 30.8789H44.2182V36.8278H50.4782V30.8789Z" fill="#F5F5F5"/>
<g opacity="0.5">
<path opacity="0.5" d="M47.9023 31.9218V31.6123H46.795V31.9181H46.0201V33.4179H48.6772V31.9218H47.9023ZM46.9338 31.7277H47.7644V31.9218H46.9338V31.7277Z" fill="url(#paint85_linear)"/>
</g>
<path opacity="0.6" d="M48.564 31.9722H46.1314V33.3447H48.564V31.9722Z" fill="#022E64"/>
<path opacity="0.6" d="M46.8416 31.6929V32.049H46.9685V31.7945H47.7288V32.049H47.8548V31.6929H46.8416Z" fill="#022E64"/>
<g opacity="0.6">
<path opacity="0.6" d="M48.5266 34.4131H46.2711V34.718H48.5266V34.4131Z" fill="#022E64"/>
</g>
<path d="M49.2742 34.9727H45.4222V35.2776H49.2742V34.9727Z" fill="#BDBDBD"/>
<path d="M44.3843 0H37.9216V6.22812H44.3843V0Z" fill="url(#paint86_linear)"/>
<path d="M44.283 0.152832H38.0229V6.10169H44.283V0.152832Z" fill="#F5F5F5"/>
<g opacity="0.5">
<path opacity="0.5" d="M41.707 1.19504V0.890137H40.5998V1.19504H39.8248V2.69485H42.482V1.19504H41.707ZM40.7386 1.00093H41.5692V1.19504H40.7386V1.00093Z" fill="url(#paint87_linear)"/>
</g>
<path opacity="0.6" d="M42.3688 1.24512H39.9362V2.61765H42.3688V1.24512Z" fill="#022E64"/>
<path opacity="0.6" d="M40.6464 0.96582V1.322H40.7732V1.06746H41.5336V1.322H41.6596V0.96582H40.6464Z" fill="#022E64"/>
<g opacity="0.6">
<path opacity="0.6" d="M42.3314 3.68652H40.0759V3.99143H42.3314V3.68652Z" fill="#022E64"/>
</g>
<path d="M43.079 4.24561H39.2269V4.55051H43.079V4.24561Z" fill="#BDBDBD"/>
<g opacity="0.5">
<path opacity="0.5" d="M37.1695 11.687H28.7963V18.5863H37.1695V11.687Z" fill="url(#paint88_linear)"/>
</g>
<path d="M37.0563 11.8184H28.894V18.4723H37.0563V11.8184Z" fill="#F2F2F2"/>
<path d="M37.0563 11.8184H28.894V13.3026H37.0563V11.8184Z" fill="#022E64"/>
<path opacity="0.1" d="M37.0563 11.8184H28.894V13.3026H37.0563V11.8184Z" fill="black"/>
<path d="M36.4064 13.8408H29.5448V14.7052H36.4064V13.8408Z" fill="#E0E0E0"/>
<path d="M34.5525 15.3569H29.5448V15.6508H34.5525V15.3569Z" fill="#E0E0E0"/>
<path d="M32.7962 15.8623H29.5448V16.1562H32.7962V15.8623Z" fill="#E0E0E0"/>
<path d="M33.8368 16.3677H29.5448V16.6616H33.8368V16.3677Z" fill="#E0E0E0"/>
<path d="M34.5525 16.874H29.5448V17.1679H34.5525V16.874Z" fill="#E0E0E0"/>
<path d="M31.2198 17.3799H29.5448V17.6738H31.2198V17.3799Z" fill="#E0E0E0"/>
<g opacity="0.5">
<path opacity="0.5" d="M51.485 16.8677H41.1064V25.4188H51.485V16.8677Z" fill="url(#paint89_linear)"/>
</g>
<path d="M51.3444 17.0288H41.2278V25.2768H51.3444V17.0288Z" fill="white"/>
<path d="M51.3444 17.0288H41.2278V18.8683H51.3444V17.0288Z" fill="#022E64"/>
<path d="M50.5384 19.5356H42.0338V20.6069H50.5384V19.5356Z" fill="#F5F5F5"/>
<path d="M48.2409 21.4155H42.0338V21.779H48.2409V21.4155Z" fill="#E0E0E0"/>
<path d="M46.0648 22.043H42.0338V22.4065H46.0648V22.043Z" fill="#E0E0E0"/>
<path d="M47.3537 22.6689H42.0338V23.0325H47.3537V22.6689Z" fill="#E0E0E0"/>
<path d="M48.2409 23.2964H42.0338V23.6599H48.2409V23.2964Z" fill="#E0E0E0"/>
<path d="M44.1095 23.9229H42.0338V24.2864H44.1095V23.9229Z" fill="#E0E0E0"/>
<path d="M44.8955 19.8994H42.4774V20.2226H44.8955V19.8994Z" fill="#69F0AE"/>
<path opacity="0.1" d="M11.4731 49.0944L23.7485 52.2011L33.615 44.1454V39.1973L11.7022 33.6733L11.4731 49.0944Z" fill="black"/>
<path opacity="0.1" d="M55.757 49.0944L43.4816 52.2011L33.615 44.1454V39.1973L55.5279 33.6733L55.757 49.0944Z" fill="black"/>
<path d="M11.7597 33.2705L0.516632 42.5916L22.4286 48.1156L33.6716 39.1397L11.7597 33.2705Z" fill="#535461"/>
<path d="M55.5844 33.2705L66.9425 42.5916L45.1447 48.1156L33.6716 39.1397L55.5844 33.2705Z" fill="#535461"/>
<path opacity="0.07" d="M55.5844 33.2705L66.9425 42.5916L45.1447 48.1156L33.6716 39.1397L55.5844 33.2705Z" fill="black"/>
<defs>
<linearGradient id="paint0_linear" x1="33.4425" y1="49.1072" x2="55.5443" y2="49.1072" gradientUnits="userSpaceOnUse">
<stop stop-color="#808080" stop-opacity="0.25"/>
<stop offset="0.54" stop-color="#808080" stop-opacity="0.12"/>
<stop offset="1" stop-color="#808080" stop-opacity="0.1"/>
</linearGradient>
<linearGradient id="paint1_linear" x1="33.4425" y1="49.1072" x2="55.5443" y2="49.1072" gradientUnits="userSpaceOnUse">
<stop stop-color="#808080" stop-opacity="0.25"/>
<stop offset="0.54" stop-color="#808080" stop-opacity="0.12"/>
<stop offset="1" stop-color="#808080" stop-opacity="0.1"/>
</linearGradient>
<linearGradient id="paint2_linear" x1="2757.16" y1="22439.2" x2="8109.1" y2="22439.2" gradientUnits="userSpaceOnUse">
<stop stop-color="#808080" stop-opacity="0.25"/>
<stop offset="0.54" stop-color="#808080" stop-opacity="0.12"/>
<stop offset="1" stop-color="#808080" stop-opacity="0.1"/>
</linearGradient>
<linearGradient id="paint3_linear" x1="2757.16" y1="22439.2" x2="8109.1" y2="22439.2" gradientUnits="userSpaceOnUse">
<stop stop-color="#808080" stop-opacity="0.25"/>
<stop offset="0.54" stop-color="#808080" stop-opacity="0.12"/>
<stop offset="1" stop-color="#808080" stop-opacity="0.1"/>
</linearGradient>
<linearGradient id="paint4_linear" x1="12327.9" y1="4257.55" x2="24664.7" y2="4257.55" gradientUnits="userSpaceOnUse">
<stop stop-color="#808080" stop-opacity="0.25"/>
<stop offset="0.54" stop-color="#808080" stop-opacity="0.12"/>
<stop offset="1" stop-color="#808080" stop-opacity="0.1"/>
</linearGradient>
<linearGradient id="paint5_linear" x1="0" y1="4257.55" x2="12252.3" y2="4257.55" gradientUnits="userSpaceOnUse">
<stop stop-color="#808080" stop-opacity="0.25"/>
<stop offset="0.54" stop-color="#808080" stop-opacity="0.12"/>
<stop offset="1" stop-color="#808080" stop-opacity="0.1"/>
</linearGradient>
<linearGradient id="paint6_linear" x1="0" y1="4257.55" x2="12252.3" y2="4257.55" gradientUnits="userSpaceOnUse">
<stop stop-color="#808080" stop-opacity="0.25"/>
<stop offset="0.54" stop-color="#808080" stop-opacity="0.12"/>
<stop offset="1" stop-color="#808080" stop-opacity="0.1"/>
</linearGradient>
<linearGradient id="paint7_linear" x1="4555.32" y1="6418.31" x2="4555.32" y2="3900.82" gradientUnits="userSpaceOnUse">
<stop stop-color="#808080" stop-opacity="0.25"/>
<stop offset="0.54" stop-color="#808080" stop-opacity="0.12"/>
<stop offset="1" stop-color="#808080" stop-opacity="0.1"/>
</linearGradient>
<linearGradient id="paint8_linear" x1="3045.88" y1="5024.42" x2="5859.91" y2="5024.42" gradientUnits="userSpaceOnUse">
<stop stop-color="#808080" stop-opacity="0.25"/>
<stop offset="0.54" stop-color="#808080" stop-opacity="0.12"/>
<stop offset="1" stop-color="#808080" stop-opacity="0.1"/>
</linearGradient>
<linearGradient id="paint9_linear" x1="565.806" y1="749.764" x2="645.836" y2="749.764" gradientUnits="userSpaceOnUse">
<stop stop-color="#808080" stop-opacity="0.25"/>
<stop offset="0.54" stop-color="#808080" stop-opacity="0.12"/>
<stop offset="1" stop-color="#808080" stop-opacity="0.1"/>
</linearGradient>
<linearGradient id="paint10_linear" x1="2611.35" y1="103.124" x2="3876.1" y2="103.124" gradientUnits="userSpaceOnUse">
<stop stop-color="#808080" stop-opacity="0.25"/>
<stop offset="0.54" stop-color="#808080" stop-opacity="0.12"/>
<stop offset="1" stop-color="#808080" stop-opacity="0.1"/>
</linearGradient>
<linearGradient id="paint11_linear" x1="2611.35" y1="106.346" x2="3876.1" y2="106.346" gradientUnits="userSpaceOnUse">
<stop stop-color="#808080" stop-opacity="0.25"/>
<stop offset="0.54" stop-color="#808080" stop-opacity="0.12"/>
<stop offset="1" stop-color="#808080" stop-opacity="0.1"/>
</linearGradient>
<linearGradient id="paint12_linear" x1="2917.18" y1="118.04" x2="5229.49" y2="118.04" gradientUnits="userSpaceOnUse">
<stop stop-color="#808080" stop-opacity="0.25"/>
<stop offset="0.54" stop-color="#808080" stop-opacity="0.12"/>
<stop offset="1" stop-color="#808080" stop-opacity="0.1"/>
</linearGradient>
<linearGradient id="paint13_linear" x1="2917.18" y1="121.259" x2="5229.49" y2="121.259" gradientUnits="userSpaceOnUse">
<stop stop-color="#808080" stop-opacity="0.25"/>
<stop offset="0.54" stop-color="#808080" stop-opacity="0.12"/>
<stop offset="1" stop-color="#808080" stop-opacity="0.1"/>
</linearGradient>
<linearGradient id="paint14_linear" x1="2917.18" y1="125.552" x2="5229.49" y2="125.552" gradientUnits="userSpaceOnUse">
<stop stop-color="#808080" stop-opacity="0.25"/>
<stop offset="0.54" stop-color="#808080" stop-opacity="0.12"/>
<stop offset="1" stop-color="#808080" stop-opacity="0.1"/>
</linearGradient>
<linearGradient id="paint15_linear" x1="1690.09" y1="128.776" x2="2459.17" y2="128.776" gradientUnits="userSpaceOnUse">
<stop stop-color="#808080" stop-opacity="0.25"/>
<stop offset="0.54" stop-color="#808080" stop-opacity="0.12"/>
<stop offset="1" stop-color="#808080" stop-opacity="0.1"/>
</linearGradient>
<linearGradient id="paint16_linear" x1="2917.18" y1="133.058" x2="5229.49" y2="133.058" gradientUnits="userSpaceOnUse">
<stop stop-color="#808080" stop-opacity="0.25"/>
<stop offset="0.54" stop-color="#808080" stop-opacity="0.12"/>
<stop offset="1" stop-color="#808080" stop-opacity="0.1"/>
</linearGradient>
<linearGradient id="paint17_linear" x1="2917.18" y1="136.278" x2="5229.49" y2="136.278" gradientUnits="userSpaceOnUse">
<stop stop-color="#808080" stop-opacity="0.25"/>
<stop offset="0.54" stop-color="#808080" stop-opacity="0.12"/>
<stop offset="1" stop-color="#808080" stop-opacity="0.1"/>
</linearGradient>
<linearGradient id="paint18_linear" x1="2917.18" y1="140.578" x2="5229.49" y2="140.578" gradientUnits="userSpaceOnUse">
<stop stop-color="#808080" stop-opacity="0.25"/>
<stop offset="0.54" stop-color="#808080" stop-opacity="0.12"/>
<stop offset="1" stop-color="#808080" stop-opacity="0.1"/>
</linearGradient>
<linearGradient id="paint19_linear" x1="1690.09" y1="143.796" x2="2459.17" y2="143.796" gradientUnits="userSpaceOnUse">
<stop stop-color="#808080" stop-opacity="0.25"/>
<stop offset="0.54" stop-color="#808080" stop-opacity="0.12"/>
<stop offset="1" stop-color="#808080" stop-opacity="0.1"/>
</linearGradient>
<linearGradient id="paint20_linear" x1="5002.7" y1="7003.63" x2="5002.7" y2="4485.99" gradientUnits="userSpaceOnUse">
<stop stop-color="#808080" stop-opacity="0.25"/>
<stop offset="0.54" stop-color="#808080" stop-opacity="0.12"/>
<stop offset="1" stop-color="#808080" stop-opacity="0.1"/>
</linearGradient>
<linearGradient id="paint21_linear" x1="3483.01" y1="5595.64" x2="6297.05" y2="5595.64" gradientUnits="userSpaceOnUse">
<stop stop-color="#808080" stop-opacity="0.25"/>
<stop offset="0.54" stop-color="#808080" stop-opacity="0.12"/>
<stop offset="1" stop-color="#808080" stop-opacity="0.1"/>
</linearGradient>
<linearGradient id="paint22_linear" x1="641.582" y1="846.78" x2="721.613" y2="846.78" gradientUnits="userSpaceOnUse">
<stop stop-color="#808080" stop-opacity="0.25"/>
<stop offset="0.54" stop-color="#808080" stop-opacity="0.12"/>
<stop offset="1" stop-color="#808080" stop-opacity="0.1"/>
</linearGradient>
<linearGradient id="paint23_linear" x1="2905.33" y1="117.022" x2="4170.08" y2="117.022" gradientUnits="userSpaceOnUse">
<stop stop-color="#808080" stop-opacity="0.25"/>
<stop offset="0.54" stop-color="#808080" stop-opacity="0.12"/>
<stop offset="1" stop-color="#808080" stop-opacity="0.1"/>
</linearGradient>
<linearGradient id="paint24_linear" x1="2905.33" y1="120.24" x2="4170.08" y2="120.24" gradientUnits="userSpaceOnUse">
<stop stop-color="#808080" stop-opacity="0.25"/>
<stop offset="0.54" stop-color="#808080" stop-opacity="0.12"/>
<stop offset="1" stop-color="#808080" stop-opacity="0.1"/>
</linearGradient>
<linearGradient id="paint25_linear" x1="3313.66" y1="131.93" x2="5626.12" y2="131.93" gradientUnits="userSpaceOnUse">
<stop stop-color="#808080" stop-opacity="0.25"/>
<stop offset="0.54" stop-color="#808080" stop-opacity="0.12"/>
<stop offset="1" stop-color="#808080" stop-opacity="0.1"/>
</linearGradient>
<linearGradient id="paint26_linear" x1="3313.66" y1="135.152" x2="5626.12" y2="135.152" gradientUnits="userSpaceOnUse">
<stop stop-color="#808080" stop-opacity="0.25"/>
<stop offset="0.54" stop-color="#808080" stop-opacity="0.12"/>
<stop offset="1" stop-color="#808080" stop-opacity="0.1"/>
</linearGradient>
<linearGradient id="paint27_linear" x1="3313.66" y1="139.444" x2="5626.12" y2="139.444" gradientUnits="userSpaceOnUse">
<stop stop-color="#808080" stop-opacity="0.25"/>
<stop offset="0.54" stop-color="#808080" stop-opacity="0.12"/>
<stop offset="1" stop-color="#808080" stop-opacity="0.1"/>
</linearGradient>
<linearGradient id="paint28_linear" x1="1919.79" y1="142.661" x2="2688.87" y2="142.661" gradientUnits="userSpaceOnUse">
<stop stop-color="#808080" stop-opacity="0.25"/>
<stop offset="0.54" stop-color="#808080" stop-opacity="0.12"/>
<stop offset="1" stop-color="#808080" stop-opacity="0.1"/>
</linearGradient>
<linearGradient id="paint29_linear" x1="3313.66" y1="146.959" x2="5626.12" y2="146.959" gradientUnits="userSpaceOnUse">
<stop stop-color="#808080" stop-opacity="0.25"/>
<stop offset="0.54" stop-color="#808080" stop-opacity="0.12"/>
<stop offset="1" stop-color="#808080" stop-opacity="0.1"/>
</linearGradient>
<linearGradient id="paint30_linear" x1="3313.66" y1="150.174" x2="5626.12" y2="150.174" gradientUnits="userSpaceOnUse">
<stop stop-color="#808080" stop-opacity="0.25"/>
<stop offset="0.54" stop-color="#808080" stop-opacity="0.12"/>
<stop offset="1" stop-color="#808080" stop-opacity="0.1"/>
</linearGradient>
<linearGradient id="paint31_linear" x1="3313.66" y1="154.472" x2="5626.12" y2="154.472" gradientUnits="userSpaceOnUse">
<stop stop-color="#808080" stop-opacity="0.25"/>
<stop offset="0.54" stop-color="#808080" stop-opacity="0.12"/>
<stop offset="1" stop-color="#808080" stop-opacity="0.1"/>
</linearGradient>
<linearGradient id="paint32_linear" x1="1919.79" y1="157.687" x2="2688.87" y2="157.687" gradientUnits="userSpaceOnUse">
<stop stop-color="#808080" stop-opacity="0.25"/>
<stop offset="0.54" stop-color="#808080" stop-opacity="0.12"/>
<stop offset="1" stop-color="#808080" stop-opacity="0.1"/>
</linearGradient>
<linearGradient id="paint33_linear" x1="5661.73" y1="8373.39" x2="5661.73" y2="5308.37" gradientUnits="userSpaceOnUse">
<stop stop-color="#808080" stop-opacity="0.25"/>
<stop offset="0.54" stop-color="#808080" stop-opacity="0.12"/>
<stop offset="1" stop-color="#808080" stop-opacity="0.1"/>
</linearGradient>
<linearGradient id="paint34_linear" x1="4384.57" y1="6572.03" x2="6373.73" y2="6572.03" gradientUnits="userSpaceOnUse">
<stop stop-color="#808080" stop-opacity="0.25"/>
<stop offset="0.54" stop-color="#808080" stop-opacity="0.12"/>
<stop offset="1" stop-color="#808080" stop-opacity="0.1"/>
</linearGradient>
<linearGradient id="paint35_linear" x1="2254.27" y1="1073.33" x2="2254.27" y2="1010.82" gradientUnits="userSpaceOnUse">
<stop stop-color="#808080" stop-opacity="0.25"/>
<stop offset="0.54" stop-color="#808080" stop-opacity="0.12"/>
<stop offset="1" stop-color="#808080" stop-opacity="0.1"/>
</linearGradient>
<linearGradient id="paint36_linear" x1="1258.32" y1="681.139" x2="1372.32" y2="681.139" gradientUnits="userSpaceOnUse">
<stop stop-color="#808080" stop-opacity="0.25"/>
<stop offset="0.54" stop-color="#808080" stop-opacity="0.12"/>
<stop offset="1" stop-color="#808080" stop-opacity="0.1"/>
</linearGradient>
<linearGradient id="paint37_linear" x1="559.12" y1="194.547" x2="578.898" y2="194.547" gradientUnits="userSpaceOnUse">
<stop stop-color="#808080" stop-opacity="0.25"/>
<stop offset="0.54" stop-color="#808080" stop-opacity="0.12"/>
<stop offset="1" stop-color="#808080" stop-opacity="0.1"/>
</linearGradient>
<linearGradient id="paint38_linear" x1="3303.43" y1="197.069" x2="4287.12" y2="197.069" gradientUnits="userSpaceOnUse">
<stop stop-color="#808080" stop-opacity="0.25"/>
<stop offset="0.54" stop-color="#808080" stop-opacity="0.12"/>
<stop offset="1" stop-color="#808080" stop-opacity="0.1"/>
</linearGradient>
<linearGradient id="paint39_linear" x1="3303.43" y1="211.502" x2="4287.12" y2="211.502" gradientUnits="userSpaceOnUse">
<stop stop-color="#808080" stop-opacity="0.25"/>
<stop offset="0.54" stop-color="#808080" stop-opacity="0.12"/>
<stop offset="1" stop-color="#808080" stop-opacity="0.1"/>
</linearGradient>
<linearGradient id="paint40_linear" x1="3303.43" y1="215.334" x2="4287.12" y2="215.334" gradientUnits="userSpaceOnUse">
<stop stop-color="#808080" stop-opacity="0.25"/>
<stop offset="0.54" stop-color="#808080" stop-opacity="0.12"/>
<stop offset="1" stop-color="#808080" stop-opacity="0.1"/>
</linearGradient>
<linearGradient id="paint41_linear" x1="1412.34" y1="207.669" x2="1587.53" y2="207.669" gradientUnits="userSpaceOnUse">
<stop stop-color="#808080" stop-opacity="0.25"/>
<stop offset="0.54" stop-color="#808080" stop-opacity="0.12"/>
<stop offset="1" stop-color="#808080" stop-opacity="0.1"/>
</linearGradient>
<linearGradient id="paint42_linear" x1="1283" y1="207.669" x2="1380.97" y2="207.669" gradientUnits="userSpaceOnUse">
<stop stop-color="#808080" stop-opacity="0.25"/>
<stop offset="0.54" stop-color="#808080" stop-opacity="0.12"/>
<stop offset="1" stop-color="#808080" stop-opacity="0.1"/>
</linearGradient>
<linearGradient id="paint43_linear" x1="1176.34" y1="224.297" x2="1274.34" y2="224.297" gradientUnits="userSpaceOnUse">
<stop stop-color="#808080" stop-opacity="0.25"/>
<stop offset="0.54" stop-color="#808080" stop-opacity="0.12"/>
<stop offset="1" stop-color="#808080" stop-opacity="0.1"/>
</linearGradient>
<linearGradient id="paint44_linear" x1="2757.16" y1="20643.6" x2="8109.1" y2="20643.6" gradientUnits="userSpaceOnUse">
<stop stop-color="#808080" stop-opacity="0.25"/>
<stop offset="0.54" stop-color="#808080" stop-opacity="0.12"/>
<stop offset="1" stop-color="#808080" stop-opacity="0.1"/>
</linearGradient>
<linearGradient id="paint45_linear" x1="8130.87" y1="20643.6" x2="13482.4" y2="20643.6" gradientUnits="userSpaceOnUse">
<stop stop-color="#808080" stop-opacity="0.25"/>
<stop offset="0.54" stop-color="#808080" stop-opacity="0.12"/>
<stop offset="1" stop-color="#808080" stop-opacity="0.1"/>
</linearGradient>
<linearGradient id="paint46_linear" x1="8130.87" y1="20643.6" x2="13482.4" y2="20643.6" gradientUnits="userSpaceOnUse">
<stop stop-color="#808080" stop-opacity="0.25"/>
<stop offset="0.54" stop-color="#808080" stop-opacity="0.12"/>
<stop offset="1" stop-color="#808080" stop-opacity="0.1"/>
</linearGradient>
<linearGradient id="paint47_linear" x1="4551.05" y1="7966.59" x2="5398.44" y2="7966.59" gradientUnits="userSpaceOnUse">
<stop stop-color="#808080" stop-opacity="0.25"/>
<stop offset="0.54" stop-color="#808080" stop-opacity="0.12"/>
<stop offset="1" stop-color="#808080" stop-opacity="0.1"/>
</linearGradient>
<linearGradient id="paint48_linear" x1="3417.16" y1="2588.01" x2="3417.16" y2="2156.99" gradientUnits="userSpaceOnUse">
<stop stop-color="#808080" stop-opacity="0.25"/>
<stop offset="0.54" stop-color="#808080" stop-opacity="0.12"/>
<stop offset="1" stop-color="#808080" stop-opacity="0.1"/>
</linearGradient>
<linearGradient id="paint49_linear" x1="3093.06" y1="2268.41" x2="3529.79" y2="2268.41" gradientUnits="userSpaceOnUse">
<stop stop-color="#808080" stop-opacity="0.25"/>
<stop offset="0.54" stop-color="#808080" stop-opacity="0.12"/>
<stop offset="1" stop-color="#808080" stop-opacity="0.1"/>
</linearGradient>
<linearGradient id="paint50_linear" x1="2057.89" y1="825.271" x2="2057.89" y2="789.066" gradientUnits="userSpaceOnUse">
<stop stop-color="#808080" stop-opacity="0.25"/>
<stop offset="0.54" stop-color="#808080" stop-opacity="0.12"/>
<stop offset="1" stop-color="#808080" stop-opacity="0.1"/>
</linearGradient>
<linearGradient id="paint51_linear" x1="1282.73" y1="530.238" x2="1348.71" y2="530.238" gradientUnits="userSpaceOnUse">
<stop stop-color="#808080" stop-opacity="0.25"/>
<stop offset="0.54" stop-color="#808080" stop-opacity="0.12"/>
<stop offset="1" stop-color="#808080" stop-opacity="0.1"/>
</linearGradient>
<linearGradient id="paint52_linear" x1="570.513" y1="158.276" x2="581.973" y2="158.276" gradientUnits="userSpaceOnUse">
<stop stop-color="#808080" stop-opacity="0.25"/>
<stop offset="0.54" stop-color="#808080" stop-opacity="0.12"/>
<stop offset="1" stop-color="#808080" stop-opacity="0.1"/>
</linearGradient>
<linearGradient id="paint53_linear" x1="1196.2" y1="151.831" x2="1252.91" y2="151.831" gradientUnits="userSpaceOnUse">
<stop stop-color="#808080" stop-opacity="0.25"/>
<stop offset="0.54" stop-color="#808080" stop-opacity="0.12"/>
<stop offset="1" stop-color="#808080" stop-opacity="0.1"/>
</linearGradient>
<linearGradient id="paint54_linear" x1="1973.43" y1="154.29" x2="2138.85" y2="154.29" gradientUnits="userSpaceOnUse">
<stop stop-color="#808080" stop-opacity="0.25"/>
<stop offset="0.54" stop-color="#808080" stop-opacity="0.12"/>
<stop offset="1" stop-color="#808080" stop-opacity="0.1"/>
</linearGradient>
<linearGradient id="paint55_linear" x1="3058.35" y1="1436.18" x2="3058.35" y2="907.31" gradientUnits="userSpaceOnUse">
<stop stop-color="#808080" stop-opacity="0.25"/>
<stop offset="0.54" stop-color="#808080" stop-opacity="0.12"/>
<stop offset="1" stop-color="#808080" stop-opacity="0.1"/>
</linearGradient>
<linearGradient id="paint56_linear" x1="2610.13" y1="1131.27" x2="3352.63" y2="1131.27" gradientUnits="userSpaceOnUse">
<stop stop-color="#808080" stop-opacity="0.25"/>
<stop offset="0.54" stop-color="#808080" stop-opacity="0.12"/>
<stop offset="1" stop-color="#808080" stop-opacity="0.1"/>
</linearGradient>
<linearGradient id="paint57_linear" x1="2610.13" y1="218.957" x2="3352.63" y2="218.957" gradientUnits="userSpaceOnUse">
<stop stop-color="#808080" stop-opacity="0.25"/>
<stop offset="0.54" stop-color="#808080" stop-opacity="0.12"/>
<stop offset="1" stop-color="#808080" stop-opacity="0.1"/>
</linearGradient>
<linearGradient id="paint58_linear" x1="2610.13" y1="218.957" x2="3352.63" y2="218.957" gradientUnits="userSpaceOnUse">
<stop stop-color="#808080" stop-opacity="0.25"/>
<stop offset="0.54" stop-color="#808080" stop-opacity="0.12"/>
<stop offset="1" stop-color="#808080" stop-opacity="0.1"/>
</linearGradient>
<linearGradient id="paint59_linear" x1="2249.22" y1="150.957" x2="2773.9" y2="150.957" gradientUnits="userSpaceOnUse">
<stop stop-color="#808080" stop-opacity="0.25"/>
<stop offset="0.54" stop-color="#808080" stop-opacity="0.12"/>
<stop offset="1" stop-color="#808080" stop-opacity="0.1"/>
</linearGradient>
<linearGradient id="paint60_linear" x1="1649.59" y1="65.9785" x2="1929.09" y2="65.9785" gradientUnits="userSpaceOnUse">
<stop stop-color="#808080" stop-opacity="0.25"/>
<stop offset="0.54" stop-color="#808080" stop-opacity="0.12"/>
<stop offset="1" stop-color="#808080" stop-opacity="0.1"/>
</linearGradient>
<linearGradient id="paint61_linear" x1="1081.28" y1="68.1356" x2="1199.12" y2="68.1356" gradientUnits="userSpaceOnUse">
<stop stop-color="#808080" stop-opacity="0.25"/>
<stop offset="0.54" stop-color="#808080" stop-opacity="0.12"/>
<stop offset="1" stop-color="#808080" stop-opacity="0.1"/>
</linearGradient>
<linearGradient id="paint62_linear" x1="1417.99" y1="70.293" x2="1623.33" y2="70.293" gradientUnits="userSpaceOnUse">
<stop stop-color="#808080" stop-opacity="0.25"/>
<stop offset="0.54" stop-color="#808080" stop-opacity="0.12"/>
<stop offset="1" stop-color="#808080" stop-opacity="0.1"/>
</linearGradient>
<linearGradient id="paint63_linear" x1="1649.59" y1="72.4491" x2="1929.09" y2="72.4491" gradientUnits="userSpaceOnUse">
<stop stop-color="#808080" stop-opacity="0.25"/>
<stop offset="0.54" stop-color="#808080" stop-opacity="0.12"/>
<stop offset="1" stop-color="#808080" stop-opacity="0.1"/>
</linearGradient>
<linearGradient id="paint64_linear" x1="570.943" y1="74.6071" x2="602.184" y2="74.6071" gradientUnits="userSpaceOnUse">
<stop stop-color="#808080" stop-opacity="0.25"/>
<stop offset="0.54" stop-color="#808080" stop-opacity="0.12"/>
<stop offset="1" stop-color="#808080" stop-opacity="0.1"/>
</linearGradient>
<linearGradient id="paint65_linear" x1="5336.31" y1="2431.39" x2="5336.31" y2="1619.06" gradientUnits="userSpaceOnUse">
<stop stop-color="#808080" stop-opacity="0.25"/>
<stop offset="0.54" stop-color="#808080" stop-opacity="0.12"/>
<stop offset="1" stop-color="#808080" stop-opacity="0.1"/>
</linearGradient>
<linearGradient id="paint66_linear" x1="4631.56" y1="1955.05" x2="5772.19" y2="1955.05" gradientUnits="userSpaceOnUse">
<stop stop-color="#808080" stop-opacity="0.25"/>
<stop offset="0.54" stop-color="#808080" stop-opacity="0.12"/>
<stop offset="1" stop-color="#808080" stop-opacity="0.1"/>
</linearGradient>
<linearGradient id="paint67_linear" x1="4631.56" y1="383.866" x2="5772.19" y2="383.866" gradientUnits="userSpaceOnUse">
<stop stop-color="#808080" stop-opacity="0.25"/>
<stop offset="0.54" stop-color="#808080" stop-opacity="0.12"/>
<stop offset="1" stop-color="#808080" stop-opacity="0.1"/>
</linearGradient>
<linearGradient id="paint68_linear" x1="3976.95" y1="258.533" x2="4783" y2="258.533" gradientUnits="userSpaceOnUse">
<stop stop-color="#808080" stop-opacity="0.25"/>
<stop offset="0.54" stop-color="#808080" stop-opacity="0.12"/>
<stop offset="1" stop-color="#808080" stop-opacity="0.1"/>
</linearGradient>
<linearGradient id="paint69_linear" x1="2914.14" y1="108.932" x2="3343.58" y2="108.932" gradientUnits="userSpaceOnUse">
<stop stop-color="#808080" stop-opacity="0.25"/>
<stop offset="0.54" stop-color="#808080" stop-opacity="0.12"/>
<stop offset="1" stop-color="#808080" stop-opacity="0.1"/>
</linearGradient>
<linearGradient id="paint70_linear" x1="1907.03" y1="112.098" x2="2088.11" y2="112.098" gradientUnits="userSpaceOnUse">
<stop stop-color="#808080" stop-opacity="0.25"/>
<stop offset="0.54" stop-color="#808080" stop-opacity="0.12"/>
<stop offset="1" stop-color="#808080" stop-opacity="0.1"/>
</linearGradient>
<linearGradient id="paint71_linear" x1="2503.76" y1="115.267" x2="2819.25" y2="115.267" gradientUnits="userSpaceOnUse">
<stop stop-color="#808080" stop-opacity="0.25"/>
<stop offset="0.54" stop-color="#808080" stop-opacity="0.12"/>
<stop offset="1" stop-color="#808080" stop-opacity="0.1"/>
</linearGradient>
<linearGradient id="paint72_linear" x1="2914.14" y1="118.43" x2="3343.58" y2="118.43" gradientUnits="userSpaceOnUse">
<stop stop-color="#808080" stop-opacity="0.25"/>
<stop offset="0.54" stop-color="#808080" stop-opacity="0.12"/>
<stop offset="1" stop-color="#808080" stop-opacity="0.1"/>
</linearGradient>
<linearGradient id="paint73_linear" x1="1002.51" y1="121.6" x2="1050.54" y2="121.6" gradientUnits="userSpaceOnUse">
<stop stop-color="#808080" stop-opacity="0.25"/>
<stop offset="0.54" stop-color="#808080" stop-opacity="0.12"/>
<stop offset="1" stop-color="#808080" stop-opacity="0.1"/>
</linearGradient>
<linearGradient id="paint74_linear" x1="1173.2" y1="92.0854" x2="1238.37" y2="92.0854" gradientUnits="userSpaceOnUse">
<stop stop-color="#808080" stop-opacity="0.25"/>
<stop offset="0.54" stop-color="#808080" stop-opacity="0.12"/>
<stop offset="1" stop-color="#808080" stop-opacity="0.1"/>
</linearGradient>
<linearGradient id="paint75_linear" x1="2714.87" y1="8872.09" x2="8178.8" y2="8872.09" gradientUnits="userSpaceOnUse">
<stop stop-color="#808080" stop-opacity="0.25"/>
<stop offset="0.54" stop-color="#808080" stop-opacity="0.12"/>
<stop offset="1" stop-color="#808080" stop-opacity="0.1"/>
</linearGradient>
<linearGradient id="paint76_linear" x1="8201.46" y1="8872.09" x2="13665.8" y2="8872.09" gradientUnits="userSpaceOnUse">
<stop stop-color="#808080" stop-opacity="0.25"/>
<stop offset="0.54" stop-color="#808080" stop-opacity="0.12"/>
<stop offset="1" stop-color="#808080" stop-opacity="0.1"/>
</linearGradient>
<linearGradient id="paint77_linear" x1="0" y1="6745.15" x2="12252.3" y2="6745.15" gradientUnits="userSpaceOnUse">
<stop stop-color="#808080" stop-opacity="0.25"/>
<stop offset="0.54" stop-color="#808080" stop-opacity="0.12"/>
<stop offset="1" stop-color="#808080" stop-opacity="0.1"/>
</linearGradient>
<linearGradient id="paint78_linear" x1="12327.9" y1="6745.15" x2="24664.7" y2="6745.15" gradientUnits="userSpaceOnUse">
<stop stop-color="#808080" stop-opacity="0.25"/>
<stop offset="0.54" stop-color="#808080" stop-opacity="0.12"/>
<stop offset="1" stop-color="#808080" stop-opacity="0.1"/>
</linearGradient>
<linearGradient id="paint79_linear" x1="12327.9" y1="6745.15" x2="24664.7" y2="6745.15" gradientUnits="userSpaceOnUse">
<stop stop-color="#808080" stop-opacity="0.25"/>
<stop offset="0.54" stop-color="#808080" stop-opacity="0.12"/>
<stop offset="1" stop-color="#808080" stop-opacity="0.1"/>
</linearGradient>
<linearGradient id="paint80_linear" x1="4570.15" y1="6309.91" x2="4570.15" y2="3835.2" gradientUnits="userSpaceOnUse">
<stop stop-color="#808080" stop-opacity="0.25"/>
<stop offset="0.54" stop-color="#808080" stop-opacity="0.12"/>
<stop offset="1" stop-color="#808080" stop-opacity="0.1"/>
</linearGradient>
<linearGradient id="paint81_linear" x1="5010.11" y1="6885.25" x2="5010.11" y2="4410.54" gradientUnits="userSpaceOnUse">
<stop stop-color="#808080" stop-opacity="0.25"/>
<stop offset="0.54" stop-color="#808080" stop-opacity="0.12"/>
<stop offset="1" stop-color="#808080" stop-opacity="0.1"/>
</linearGradient>
<linearGradient id="paint82_linear" x1="5645.89" y1="8231.62" x2="5645.89" y2="5218.98" gradientUnits="userSpaceOnUse">
<stop stop-color="#808080" stop-opacity="0.25"/>
<stop offset="0.54" stop-color="#808080" stop-opacity="0.12"/>
<stop offset="1" stop-color="#808080" stop-opacity="0.1"/>
</linearGradient>
<linearGradient id="paint83_linear" x1="2243.42" y1="1057.36" x2="2243.42" y2="995.846" gradientUnits="userSpaceOnUse">
<stop stop-color="#808080" stop-opacity="0.25"/>
<stop offset="0.54" stop-color="#808080" stop-opacity="0.12"/>
<stop offset="1" stop-color="#808080" stop-opacity="0.1"/>
</linearGradient>
<linearGradient id="paint84_linear" x1="3396.37" y1="2544.39" x2="3396.37" y2="2120.76" gradientUnits="userSpaceOnUse">
<stop stop-color="#808080" stop-opacity="0.25"/>
<stop offset="0.54" stop-color="#808080" stop-opacity="0.12"/>
<stop offset="1" stop-color="#808080" stop-opacity="0.1"/>
</linearGradient>
<linearGradient id="paint85_linear" x1="2043.44" y1="813.016" x2="2043.44" y2="777.427" gradientUnits="userSpaceOnUse">
<stop stop-color="#808080" stop-opacity="0.25"/>
<stop offset="0.54" stop-color="#808080" stop-opacity="0.12"/>
<stop offset="1" stop-color="#808080" stop-opacity="0.1"/>
</linearGradient>
<linearGradient id="paint86_linear" x1="2951.56" y1="423.637" x2="2951.56" y2="0" gradientUnits="userSpaceOnUse">
<stop stop-color="#808080" stop-opacity="0.25"/>
<stop offset="0.54" stop-color="#808080" stop-opacity="0.12"/>
<stop offset="1" stop-color="#808080" stop-opacity="0.1"/>
</linearGradient>
<linearGradient id="paint87_linear" x1="1856.91" y1="176.272" x2="1856.91" y2="140.701" gradientUnits="userSpaceOnUse">
<stop stop-color="#808080" stop-opacity="0.25"/>
<stop offset="0.54" stop-color="#808080" stop-opacity="0.12"/>
<stop offset="1" stop-color="#808080" stop-opacity="0.1"/>
</linearGradient>
<linearGradient id="paint88_linear" x1="3054.36" y1="1412.17" x2="3054.36" y2="892.311" gradientUnits="userSpaceOnUse">
<stop stop-color="#808080" stop-opacity="0.25"/>
<stop offset="0.54" stop-color="#808080" stop-opacity="0.12"/>
<stop offset="1" stop-color="#808080" stop-opacity="0.1"/>
</linearGradient>
<linearGradient id="paint89_linear" x1="5304.94" y1="2390.73" x2="5304.94" y2="1592.15" gradientUnits="userSpaceOnUse">
<stop stop-color="#808080" stop-opacity="0.25"/>
<stop offset="0.54" stop-color="#808080" stop-opacity="0.12"/>
<stop offset="1" stop-color="#808080" stop-opacity="0.1"/>
</linearGradient>
</defs>
</svg>
