<svg width="24" height="25" viewBox="0 0 24 25" fill="none" xmlns="http://www.w3.org/2000/svg">
<path fill-rule="evenodd" clip-rule="evenodd" d="M12 4.56177C12.5523 4.56177 13 5.00948 13 5.56177V19.5618C13 20.1141 12.5523 20.5618 12 20.5618C11.4477 20.5618 11 20.1141 11 19.5618V5.56177C11 5.00948 11.4477 4.56177 12 4.56177Z" fill="#0078CF"/>
<path fill-rule="evenodd" clip-rule="evenodd" d="M4 12.5618C4 12.0095 4.44772 11.5618 5 11.5618H19C19.5523 11.5618 20 12.0095 20 12.5618C20 13.1141 19.5523 13.5618 19 13.5618H5C4.44772 13.5618 4 13.1141 4 12.5618Z" fill="#0078CF"/>
</svg>
